%YAML 1.1
%TAG !u! tag:unity3d.com,2011:
--- !u!221 &22100000
AnimatorOverrideController:
  m_ObjectHideFlags: 0
  m_CorrespondingSourceObject: {fileID: 0}
  m_PrefabInstance: {fileID: 0}
  m_PrefabAsset: {fileID: 0}
  m_Name: PawnEnnemy02AnimatorControllerOverride
  m_Controller: {fileID: 9100000, guid: 730537ac8677052439cc5fd9e56b1270, type: 2}
  m_Clips:
  - m_OriginalClip: {fileID: 7400000, guid: 60efacc959448f7469e672ec4308f816, type: 2}
    m_OverrideClip: {fileID: 7400000, guid: 0e025042bab209e4bb60d1224aefbe2a, type: 2}
  - m_OriginalClip: {fileID: 7400000, guid: 4b3abf2c91345b547b75d33e0ccd538c, type: 2}
    m_OverrideClip: {fileID: 7400000, guid: 3497d93c03e3ef146b1c4c41bca65f3b, type: 2}
