%YAML 1.1
%TAG !u! tag:unity3d.com,2011:
--- !u!114 &11400000
MonoBehaviour:
  m_ObjectHideFlags: 0
  m_CorrespondingSourceObject: {fileID: 0}
  m_PrefabInstance: {fileID: 0}
  m_PrefabAsset: {fileID: 0}
  m_GameObject: {fileID: 0}
  m_Enabled: 1
  m_EditorHideFlags: 0
  m_Script: {fileID: 11500000, guid: 10cf8f48cae6a3845bc891a4f1187301, type: 3}
  m_Name: Level2Descripto
  m_EditorClassIdentifier: 
  serializationData:
    SerializedFormat: 2
    SerializedBytes: 
    ReferencedUnityObjects: []
    SerializedBytesString: 
    Prefab: {fileID: 0}
    PrefabModificationsReferencedUnityObjects: []
    PrefabModifications: []
    SerializationNodes: []
  environementIndex: 2
  enemyDescriptors:
  - column: 0
    line: 1
    entity: {fileID: 3681068431610961843, guid: eedf5c4333b922840a2c380c9fb694a5,
      type: 3}
  - column: 1
    line: 0
    entity: {fileID: 3681068431610961843, guid: 6b7480bfc09de3b4cb6bd33c5d0b03d2,
      type: 3}
  - column: 1
    line: 2
    entity: {fileID: 3681068431610961843, guid: 6b7480bfc09de3b4cb6bd33c5d0b03d2,
      type: 3}
  diceRewards:
    diceRewardLeft: {fileID: 5841260908108754326, guid: 9e1eefb8ac4c6f44ebae9e866672e13d,
      type: 3}
    diceRewardRight: {fileID: 5841260908108754326, guid: e769f525d4e5d4f46a17b6ee2ea191c1,
      type: 3}
