%YAML 1.1
%TAG !u! tag:unity3d.com,2011:
--- !u!114 &11400000
MonoBehaviour:
  m_ObjectHideFlags: 0
  m_CorrespondingSourceObject: {fileID: 0}
  m_PrefabInstance: {fileID: 0}
  m_PrefabAsset: {fileID: 0}
  m_GameObject: {fileID: 0}
  m_Enabled: 1
  m_EditorHideFlags: 0
  m_Script: {fileID: 11500000, guid: 10cf8f48cae6a3845bc891a4f1187301, type: 3}
  m_Name: Level6Descriptor
  m_EditorClassIdentifier: 
  serializationData:
    SerializedFormat: 2
    SerializedBytes: 
    ReferencedUnityObjects: []
    SerializedBytesString: 
    Prefab: {fileID: 0}
    PrefabModificationsReferencedUnityObjects: []
    PrefabModifications: []
    SerializationNodes: []
  environementIndex: 0
  enemyDescriptors:
  - column: 0
    line: 0
    entity: {fileID: 3681068431610961843, guid: fb9adb11cfc45d545b14e79fe3d42f60,
      type: 3}
  - column: 0
    line: 1
    entity: {fileID: 3681068431610961843, guid: 929b7479c27c6854795ea964f7c67e2b,
      type: 3}
  - column: 0
    line: 2
    entity: {fileID: 3681068431610961843, guid: 2f855a1aa8062e242aac059beaf5c31a,
      type: 3}
  diceRewards:
    diceRewardLeft: {fileID: 5841260908108754326, guid: b5e4ad3e1b7aac64780689e50f17b002,
      type: 3}
    diceRewardRight: {fileID: 5841260908108754326, guid: 14487a1b3024fd5478dcd37d462bf189,
      type: 3}
