%YAML 1.1
%TAG !u! tag:unity3d.com,2011:
--- !u!114 &11400000
MonoBehaviour:
  m_ObjectHideFlags: 0
  m_CorrespondingSourceObject: {fileID: 0}
  m_PrefabInstance: {fileID: 0}
  m_PrefabAsset: {fileID: 0}
  m_GameObject: {fileID: 0}
  m_Enabled: 1
  m_EditorHideFlags: 0
  m_Script: {fileID: 11500000, guid: 9c8b0126fbf2669419e31646e2268f85, type: 3}
  m_Name: Damage01Mid
  m_EditorClassIdentifier: 
  effectName: Damage
  target: 1
  applyToAll: 1
  damages: 5
